,age,con_rate,acc_rate,line_add,line_del,commit,file,comment,rev_comment,core_mem,intra_branch,contain_fix,last_comment_mention,has_test_code
31,1:03:31,1.0,0.0,0,0,0,0,1,2,True,False,False,False,False
32,0:05:12,1.0,1.0,0,0,0,0,0,0,True,False,False,False,False
39,0:01:47,1.0,1.0,0,0,0,0,0,0,True,False,False,False,False
47,"1 day, 2:09:51",0.0,0.0,5,1,1,1,2,0,False,False,False,False,False
50,"3 days, 1:25:39",0.0017064846416382253,0.0,2,2,1,1,4,0,True,False,False,False,False
57,"11 days, 13:15:09",0.0,0.0,81,58,1,8,2,0,False,False,False,False,False
62,"10 days, 21:41:34",0.0031746031746031746,0.0,7,5,2,3,2,0,True,False,False,False,False
74,"1 day, 18:13:06",0.0,0.0,0,0,0,0,3,0,False,False,False,False,False
88,"8 days, 12:38:10",0.0,0.0,0,0,0,0,5,0,False,False,False,False,False
100,8:25:50,0.0,0.0,1,0,1,1,1,0,False,False,False,False,False
110,"1 day, 16:22:34",0.0,0.0,216,0,1,109,1,0,False,False,False,False,False
111,7:52:41,0.0014124293785310734,0.0,9,0,1,1,1,0,True,False,False,False,False
112,"11 days, 20:32:56",0.0014005602240896359,0.0,16,36,2,3,3,0,True,False,False,False,False
114,8:42:49,0.0013986013986013986,0.0,0,0,0,0,1,0,True,False,False,False,False
121,"4 days, 16:39:19",0.0,0.0,10,0,1,1,8,0,True,False,False,False,False
124,"1 day, 22:38:15",0.0012987012987012987,0.0,0,0,0,0,2,0,True,False,False,False,False
133,"1 day, 19:16:57",0.0,0.0,0,0,0,0,2,0,False,False,False,False,False
135,0:21:07,0.0,0.0,10,3,1,1,4,0,False,False,False,False,False
147,0:05:49,0.001182033096926714,0.0,0,0,0,0,0,0,True,False,True,False,False
148,"3 days, 5:36:09",0.0023612750885478157,0.0,0,0,0,0,3,0,True,False,False,False,False
161,13:11:56,0.0,0.0,6,4,3,3,3,0,False,False,True,False,False
167,"3 days, 9:20:00",0.0011001100110011,0.0,3,3,1,1,1,0,True,False,False,False,False
170,"3 days, 18:55:01",0.0021953896816684962,1.0,24,0,1,2,2,0,True,False,False,False,False
171,"12 days, 3:31:52",0.001091703056768559,0.0,15,15,18,15,7,0,True,False,False,False,False
174,"1 day, 1:43:03",0.0010695187165775401,0.0,0,0,0,0,2,0,True,False,False,False,False
176,12:33:02,0.0010638297872340426,0.0,12,2,1,2,1,0,True,False,True,False,False
179,"176 days, 9:56:36",0.0,0.0,69,6,2,6,7,0,False,False,False,False,False
181,"51 days, 1:42:35",0.0010604453870625664,0.0,0,0,0,0,3,0,True,False,False,False,False
182,"31 days, 20:48:27",0.002070393374741201,0.0,4,1,1,1,4,0,True,False,False,False,False
184,"18 days, 22:09:41",0.002068252326783868,1.0,122,7,4,5,5,0,True,False,False,False,False
185,0:02:06,0.0,0.0,42,3,1,4,1,0,True,False,False,False,False
186,"12 days, 20:48:42",0.0010298661174047373,0.0,42,3,1,4,1,0,True,False,False,False,False
187,"12 days, 20:20:43",0.0,0.0,9,1,1,1,2,0,False,False,False,False,False
189,"5 days, 22:19:57",0.0,0.0,272,10,17,12,5,0,True,False,False,False,False
192,18:46:47,0.055396370582617004,0.0,487,148,58,36,2,0,True,False,False,False,False
193,"14 days, 22:01:09",0.06150978564771668,0.5,1669,45,40,41,12,1,True,False,False,False,False
209,"14 days, 2:22:29",0.0008795074758135445,0.0,26,0,1,3,2,0,True,False,False,False,False
211,0:25:03,0.0008787346221441124,0.0,11,0,1,1,1,0,True,False,False,False,False
212,"11 days, 6:17:56",0.0008787346221441124,0.0,11,0,1,1,2,0,True,False,False,False,False
213,"8 days, 4:41:29",0.000877963125548727,0.0,12,0,1,1,2,0,True,False,False,False,False
218,"7 days, 2:44:46",0.0017467248908296944,0.0,288,20,3,10,3,0,True,False,False,False,False
220,"4 days, 15:23:30",0.0017436791630340018,0.5,19,5,1,3,1,0,True,False,False,False,False
221,0:14:33,0.0008650519031141869,0.0,3,3,2,1,1,0,True,False,True,False,False
223,"22 days, 4:23:22",0.0,0.0,18,1,2,1,4,0,False,False,False,False,False
224,"22 days, 12:55:28",0.0034393809114359416,0.0,191,10,7,4,2,0,True,False,False,False,False
237,"9 days, 23:28:55",0.000851063829787234,0.0,5,5,1,1,1,0,True,False,False,False,False
246,"11 days, 16:56:55",0.0008460236886632825,0.0,19,4,1,3,2,0,True,False,False,False,False
247,"10 days, 4:48:38",0.0008453085376162299,0.0,6,6,1,1,3,0,True,False,False,False,False
249,6:53:39,0.0008403361344537816,0.0,2,2,1,1,1,0,True,False,False,False,False
254,"1370 days, 11:52:56",0.0,0.0,126,0,5,4,9,0,False,False,False,True,False
255,"14 days, 22:48:32",0.0008382229673093043,0.0,1,0,1,1,1,0,True,False,False,False,False
275,"4 days, 10:59:42",0.0008347245409015025,0.0,1,1,1,1,4,0,True,False,False,False,False
277,"6 days, 14:19:32",0.0016652789342214821,1.0,3,1,1,2,1,0,True,False,False,False,False
284,"128 days, 6:09:59",0.0,0.0,12,0,1,1,5,0,False,False,True,False,False
288,"73 days, 10:54:23",0.0008291873963515755,0.0,0,1,1,1,3,0,True,False,True,False,False
289,"70 days, 4:13:51",0.0,0.0,6,2,2,2,3,0,False,False,False,False,False
290,"81 days, 15:56:34",0.0,0.0,10,4,1,2,2,0,False,False,False,False,False
292,"32 days, 17:33:36",0.0,0.0,4,1,1,1,1,0,False,False,False,False,False
293,"28 days, 14:42:21",0.0008285004142502071,0.0,1,0,1,1,1,0,True,False,False,False,False
294,"43 days, 8:18:43",0.0016556291390728477,1.0,7,3,1,2,1,0,True,False,False,False,False
295,"24 days, 19:51:16",0.0008271298593879239,0.0,14,1,3,4,1,0,True,False,False,False,False
296,"13 days, 21:05:28",0.0008257638315441783,0.0,2,2,1,1,1,0,True,False,False,False,False
301,4:04:02,0.000819672131147541,0.0,1,1,1,1,0,0,True,False,True,False,False
305,"6 days, 12:04:10",0.0008163265306122449,0.0,111,15,1,8,3,0,True,False,False,False,False
307,10:40:12,0.0016313213703099511,1.0,15,1,1,3,1,0,True,False,False,False,False
308,"35 days, 7:51:19",0.0008136696501220504,0.0,1,1,1,1,1,0,True,False,False,False,False
309,2:40:39,0.0008130081300813008,0.0,20,1,3,1,1,9,True,False,False,False,False
312,"13 days, 0:31:06",0.0016194331983805667,0.0,511,5,2,11,7,0,True,False,False,True,False
313,"1 day, 5:59:10",0.0,0.0,12,0,1,1,3,0,False,False,False,False,False
315,1:10:00,0.0024271844660194173,1.0,677,26,16,29,3,0,True,False,False,False,False
316,"418 days, 16:25:42",0.0,0.0,0,0,0,0,8,0,False,False,False,False,False
326,8:00:57,0.0008064516129032258,0.0,1,0,1,1,1,0,True,False,False,False,False
327,"180 days, 23:46:48",0.0,0.0,22,19,2,3,2,0,False,False,True,True,False
333,"954 days, 23:27:19",0.0,0.0,80,0,3,3,13,2,False,False,False,False,False
334,8:26:25,0.0008051529790660225,0.0,15,2,2,1,6,2,True,False,False,False,False
336,5:30:04,0.0008032128514056225,0.0,3,0,1,1,1,0,True,False,False,False,False
337,1:48:01,0.0,0.0,0,6,1,1,2,0,False,False,False,True,False
340,"1 day, 3:22:14",0.0008019246190858059,0.0,42,2,2,3,5,0,True,False,False,False,False
341,0:06:34,0.0,0.0,9,7,1,1,1,0,False,False,False,False,False
342,0:01:23,0.0,0.0,9,7,1,1,0,0,False,False,True,False,False
343,0:07:00,0.0008,0.0,2,2,1,1,2,0,True,False,False,False,False
344,0:00:52,0.0,0.0,0,0,0,0,0,0,False,False,False,False,False
346,2:55:05,0.0007987220447284345,0.0,8,4,1,1,3,0,True,False,False,False,False
347,1:06:51,0.001594896331738437,1.0,126,0,1,4,7,0,True,False,False,False,False
352,0:38:41,0.0,0.0,1,1,1,1,1,0,True,False,False,False,False
354,3:42:31,0.0007942811755361397,0.0,0,0,0,0,1,0,True,False,False,False,False
355,9:41:18,0.0,0.0,6,1,1,1,1,0,False,False,False,False,False
357,"400 days, 11:01:57",0.0,0.0,2,0,1,1,9,0,True,False,False,False,False
359,"850 days, 17:46:53",0.0,0.0,19,0,1,1,4,0,False,False,False,True,False
360,0:23:54,0.000792393026941363,0.0,0,0,0,0,2,0,True,False,False,False,False
361,"837 days, 14:37:41",0.0,0.0,545,36,2,4,5,2,False,False,False,False,False
364,5:34:20,0.0007911392405063291,0.0,1,1,1,1,1,0,True,False,True,False,False
365,1:10:34,0.002369668246445498,0.0,3,0,1,1,1,0,True,True,False,False,False
369,4:00:19,0.0007874015748031496,1.0,66,0,1,3,4,0,True,False,False,False,False
372,5:34:11,0.0007874015748031496,0.0,394,2,1,12,3,0,True,False,False,False,False
375,9:17:18,0.0,0.0,1,0,1,1,4,0,False,False,True,False,False
378,"889 days, 9:57:38",0.0,0.0,12,2,2,1,6,0,False,False,False,True,False
379,"185 days, 11:01:02",0.0023510971786833857,0.0,228,7,11,8,8,0,True,False,False,False,False
381,"790 days, 17:35:30",0.0,0.0,4,2,1,1,2,0,False,False,True,False,False
382,"3 days, 13:05:21",0.00078125,0.0,195,0,1,5,4,0,True,False,False,False,False
383,"808 days, 6:50:14",0.0,0.0,40,8,6,3,9,2,False,False,False,False,False
384,0:34:37,0.00078003120124805,0.0,5,1,1,1,1,0,True,False,False,False,False
386,"773 days, 8:24:36",0.0,0.0,16,3,1,1,2,0,False,False,False,True,False
389,"737 days, 1:23:08",0.0,0.0,18,0,2,2,6,0,False,False,False,True,False
393,"724 days, 23:09:33",0.0,0.0,8,4,1,1,2,0,False,False,False,False,False
395,0:27:48,0.0,0.0,6,0,1,2,1,0,False,False,False,False,False
397,"805 days, 18:46:50",0.0,0.0,0,1,3,1,6,0,False,False,True,False,False
400,not closed,0.0,0.0,168,1,2,3,6,0,False,False,False,False,False
403,"32 days, 3:27:29",0.0007782101167315176,0.0,4,0,1,1,4,0,True,False,False,False,False
407,"664 days, 2:23:31",0.0,0.0,18,0,1,1,2,0,False,False,False,False,False
412,0:48:34,0.0007739938080495357,0.0,10,0,1,1,1,0,True,False,False,False,False
413,4:43:52,0.0007722007722007722,0.0,5,5,1,1,3,0,True,False,True,False,False
414,"53 days, 18:31:46",0.0,0.0,0,0,0,0,0,0,False,False,True,False,False
417,0:58:52,0.0007710100231303007,0.0,2,0,1,1,1,0,False,False,False,False,False
418,"616 days, 20:13:39",0.0007704160246533128,1.0,61,34,1,18,11,10,True,False,False,True,False
419,1:33:32,0.0,0.0,7,3,1,1,1,0,False,False,True,False,False
420,3:48:57,0.0007698229407236335,1.0,308,155,1,152,3,0,False,False,True,False,False
421,not closed,0.0,0.0,8,2,2,1,6,0,False,False,False,False,False
424,"629 days, 17:26:49",0.0,0.0,17,0,2,1,6,0,False,False,False,True,False
425,"768 days, 21:16:10",0.0,0.0,1,1,1,1,4,0,False,False,True,False,False
426,14:38:54,0.0007680491551459293,0.5,21,2,1,3,2,0,True,False,False,True,False
428,6:59:32,0.0,0.0,12,1,2,3,1,0,False,False,False,False,False
433,"697 days, 17:14:13",0.0,0.0,15,1,2,2,5,0,False,False,False,False,False
436,2:44:39,0.0,0.0,4,0,1,1,1,0,False,False,False,False,False
437,0:04:16,0.0053475935828877,0.5,21,66,1,3,7,0,True,True,False,False,False
438,10:10:22,0.0007598784194528875,0.0,0,0,0,0,1,0,True,False,True,False,False
442,"1 day, 2:41:54",0.0007587253414264037,0.0,0,0,0,0,8,1,True,False,False,False,False
444,not closed,0.0015151515151515152,1.0,64,52,1,11,3,0,False,False,False,False,False
445,"3 days, 10:29:04",0.00984102952308857,0.6666666666666666,322,1,2,88,1,0,True,True,False,False,False
448,"19 days, 21:14:08",0.01282051282051282,0.75,22,0,1,3,0,0,True,True,False,False,False
449,"134 days, 2:33:04",0.013564431047475508,0.8,165,3,1,5,1,0,True,True,False,False,False
451,23:54:25,0.0007530120481927711,0.0,1,1,1,1,1,0,True,False,False,False,False
452,0:02:44,0.0007530120481927711,1.0,23,1,3,2,0,0,True,False,False,False,False
453,not closed,0.0007530120481927711,0.5,22,0,1,1,2,0,True,False,False,False,False
454,22:27:45,0.0007524454477050414,0.0,42,0,2,3,1,0,True,False,False,False,False
455,13:28:16,0.0007513148009015778,0.0,6,5,1,1,1,0,True,False,False,False,False
458,"118 days, 3:06:11",0.00149812734082397,1.0,0,0,0,0,0,0,True,False,True,False,False
460,11:16:10,0.0,0.0,8,8,2,3,1,0,False,False,False,False,False
461,"185 days, 19:16:58",0.0,0.0,2717,1374,2,148,2,0,False,False,True,False,False
462,"3 days, 5:44:58",0.0014970059880239522,0.3333333333333333,1,1,1,1,0,0,True,False,False,False,False
463,"635 days, 8:15:32",0.0014970059880239522,0.5,1,0,1,1,1,0,True,False,False,False,False
466,0:06:21,0.014200298953662182,0.8333333333333334,7,3,1,3,0,0,True,True,False,False,False
467,"427 days, 19:43:46",0.0,0.0,18,2,1,4,1,0,False,False,True,False,False
469,"101 days, 2:19:32",0.0,0.0,128,16,5,13,6,0,False,False,False,True,False
471,"620 days, 11:53:06",0.0,0.0,2,0,1,1,1,0,False,False,False,False,False
473,"523 days, 3:26:31",0.0,0.0,171,3,3,8,2,0,True,False,False,True,False
474,0:12:15,0.0007451564828614009,0.0,0,0,0,0,0,0,True,False,False,False,False
475,2:52:58,0.001488095238095238,1.0,0,0,0,0,0,0,True,False,False,False,False
476,9:15:08,0.002228826151560178,1.0,0,0,0,0,1,0,True,False,False,False,False
479,"7 days, 22:44:57",0.000741839762611276,0.0,13,0,1,2,1,0,True,False,False,False,False
486,"641 days, 4:14:25",0.0,0.0,1,1,1,1,3,0,False,False,False,False,False
490,"508 days, 11:11:17",0.0,0.0,40,2,2,2,3,0,False,False,False,True,False
491,"477 days, 1:21:57",0.0,0.0,9,3,3,1,2,0,False,False,False,True,False
492,"1 day, 4:54:23",0.0014803849000740192,0.0,11,0,2,1,1,0,False,False,False,False,False
495,15:54:05,0.0,0.0,54,1,1,4,3,0,True,False,False,False,False
496,"475 days, 11:42:56",0.0,0.0,11,0,1,1,3,0,False,False,False,False,False
497,"62 days, 1:41:16",0.0,0.0,9,2,1,1,1,0,False,False,False,False,False
498,"48 days, 5:37:59",0.0,0.0,74,0,1,4,1,0,False,False,False,True,False
499,"26 days, 2:31:37",0.0007380073800738007,0.0,4,0,1,1,1,0,True,False,True,False,False
500,"42 days, 22:51:24",0.0007374631268436578,0.0,1,1,1,1,1,0,False,False,False,True,False
505,"458 days, 17:49:16",0.0,0.0,24,0,2,1,2,0,False,False,False,False,False
506,10:00:44,0.0007369196757553427,0.0,0,1,1,1,1,0,True,False,False,False,False
510,0:02:17,0.0,0.0,0,0,0,0,0,0,False,False,False,False,False
511,0:00:15,0.0,0.0,0,0,0,0,0,0,False,False,False,False,False
513,"11 days, 10:54:52",0.0,0.0,5,1,1,1,4,0,False,False,False,False,False
518,16:34:54,0.0014652014652014652,1.0,1,1,1,1,1,0,True,False,False,False,False
519,0:02:16,0.019019751280175568,0.8571428571428571,97,8,1,3,0,0,True,True,False,False,False
520,"270 days, 18:15:32",0.0,0.0,0,0,0,0,2,0,False,False,False,False,False
522,"407 days, 13:50:39",0.0,0.0,44,0,4,2,4,0,False,False,False,True,False
523,0:02:23,0.0,0.0,728,8,1,14,0,0,False,False,False,False,False
524,0:05:49,0.0,0.0,728,8,1,14,0,0,False,False,False,False,False
525,"291 days, 0:01:42",0.0,0.0,733,8,10,14,24,4,False,False,False,False,False
527,"519 days, 19:35:03",0.0,0.0,144,0,3,9,5,4,False,False,False,False,False
529,"139 days, 19:19:35",0.00072992700729927,0.0,0,0,0,0,2,0,False,False,False,False,False
530,"391 days, 22:43:19",0.0,0.0,33,68,2,6,1,0,False,False,False,False,False
531,not closed,0.0,0.0,3,0,1,1,1,0,False,False,False,False,False
532,23:51:36,0.0,0.0,4,0,1,1,1,0,False,False,False,False,False
533,"414 days, 16:06:59",0.0,0.0,117,0,2,4,16,4,False,False,False,True,False
537,"323 days, 16:46:39",0.0,0.0,9,2,1,1,4,0,False,False,False,False,False
538,"4 days, 19:52:12",0.0014587892049598833,1.0,372,0,4,8,6,0,True,False,False,False,False
544,0:12:25,0.001451378809869376,1.0,1,1,1,1,0,0,True,False,False,False,False
557,"82 days, 5:59:07",0.0,0.0,7,1,1,2,1,0,False,False,False,False,False
562,"328 days, 11:27:58",0.0,0.0,10,0,1,1,1,0,False,False,False,True,False
565,"208 days, 22:28:50",0.0,0.0,14,0,3,2,5,0,False,False,False,False,False
567,not closed,0.0,0.0,4,1,1,1,4,2,False,False,False,False,False
568,not closed,0.0,0.0,6,4,1,2,1,0,False,False,False,False,False
569,"323 days, 7:07:30",0.0,0.0,8,3,1,3,2,0,False,False,False,False,False
570,"218 days, 6:44:25",0.04413892908827786,1.0,18,4,1,3,2,0,True,False,False,False,False
573,0:17:04,0.0,0.0,108,2,7,7,0,0,False,False,True,False,False
574,"290 days, 23:00:13",0.0,0.0,127,0,11,8,7,4,False,False,True,True,False
577,"316 days, 13:49:56",0.001447178002894356,0.6666666666666666,7,2,1,1,1,0,True,False,False,True,False
587,not closed,0.0,0.0,0,0,0,0,2,0,False,False,False,False,False
590,"245 days, 5:02:31",0.0,0.0,14,1,2,3,2,0,False,False,False,True,False
593,"211 days, 7:14:40",0.0,0.0,2,2,2,2,4,0,False,False,True,False,False
596,"357 days, 23:49:27",0.0,0.0,10,5,2,1,9,0,False,False,True,False,False
598,"282 days, 11:56:34",0.0,0.0,28,1,1,1,5,2,False,False,False,False,False
599,not closed,0.0,0.0,895,895,2,358,1,0,False,False,True,False,False
602,"202 days, 1:32:09",0.0,0.0,7,2,1,1,1,0,False,False,False,False,False
607,"221 days, 18:47:28",0.0,0.0,221,7,27,3,12,0,False,False,False,False,False
609,"162 days, 15:14:53",0.0,0.0,48,0,2,3,3,0,False,False,False,True,False
614,"105 days, 21:14:39",0.0,0.0,5,5,1,1,1,0,True,False,False,False,False
615,0:00:54,0.0,0.0,0,0,1,1,0,0,False,False,False,False,False
618,"91 days, 5:27:28",0.0007199424046076314,0.0,2,2,1,1,1,0,False,False,False,False,False
621,"89 days, 10:20:12",0.0,0.0,8,4,1,1,0,0,False,False,False,False,False
623,"83 days, 14:44:07",0.0,0.0,64,11,6,4,1,0,False,False,False,False,False
625,"190 days, 15:06:36",0.0,1.0,105,1,4,6,3,0,False,False,False,True,False
628,21:04:02,0.0,0.0,44,44,2,9,0,0,False,False,False,False,False
630,"188 days, 12:03:38",0.0,1.0,136,0,1,7,1,4,False,False,True,True,False
632,"119 days, 8:52:41",0.0,0.0,15,2,2,1,2,0,False,False,False,True,False
633,"68 days, 6:05:48",0.0,0.0,0,0,0,0,1,0,False,False,True,False,False
635,"292 days, 11:07:34",0.0,0.0,53,0,14,3,16,12,False,False,False,False,False
637,"137 days, 4:15:38",0.0,0.0,11,0,2,2,1,0,False,False,False,False,False
638,"136 days, 5:22:31",0.0,1.0,20,6,6,3,0,0,False,False,False,False,False
643,"37 days, 14:14:11",0.0014378145219266715,0.0,0,0,0,0,2,0,False,False,False,False,False
644,"42 days, 16:41:35",0.0014378145219266715,1.0,0,0,0,0,2,0,False,False,False,False,False
647,0:02:24,0.0,0.0,5,1,1,1,0,0,False,False,False,False,False
648,"138 days, 10:46:05",0.0,0.0,54,0,2,3,3,1,False,False,False,True,False
651,"117 days, 12:48:17",0.0014378145219266715,0.75,41,22,3,10,1,1,True,False,False,False,False
654,0:07:40,0.0,0.0,0,0,0,0,0,0,False,False,False,False,False
655,"100 days, 8:57:42",0.0,0.0,0,0,0,0,1,0,False,False,False,False,False
657,"31 days, 1:00:50",0.0,0.0,11,0,1,1,2,0,False,False,False,False,False
662,"119 days, 1:55:53",0.0,0.0,69,5,2,5,18,0,False,False,False,True,False
664,"141 days, 16:31:37",0.0007168458781362007,1.0,84,28,26,4,37,21,False,False,False,False,False
667,0:02:31,0.0,0.0,10,1,3,2,2,0,True,False,False,True,False
668,"2 days, 14:20:42",0.0007132667617689016,1.0,1,0,2,1,2,2,True,False,False,False,False
669,"1 day, 10:01:35",0.0007132667617689016,1.0,36,1,3,4,1,0,True,False,False,False,False
670,"97 days, 4:43:10",0.0,0.0,15,1,1,1,3,6,False,False,False,False,False
671,14:00:23,0.0,0.0,483,2,13,22,1,0,False,False,False,False,False
673,"93 days, 0:40:45",0.0,0.0,423,0,13,8,1,3,False,False,False,True,False
674,15:20:36,0.0021337126600284497,1.0,0,0,0,0,1,0,False,False,False,False,False
675,not closed,0.0,0.0,147,0,2,2,5,5,False,False,False,False,False
676,"24 days, 6:59:11",0.0,0.0,20,3,4,3,0,0,False,False,False,False,False
677,"21 days, 5:35:19",0.0014194464158978,0.0,43,43,2,30,0,0,False,False,True,False,False
678,"19 days, 0:00:48",0.0,0.0,19,3,1,1,1,0,False,False,False,True,False
681,"1 day, 2:58:24",0.0,0.0,1,1,1,1,0,0,False,False,False,False,False
682,"1 day, 2:44:13",0.0,1.0,7,0,2,1,0,0,False,False,False,False,False
689,"1 day, 1:43:19",0.0,0.0,25,0,2,2,3,0,False,False,False,False,False
690,"1 day, 8:31:00",0.0,1.0,4,3,1,2,0,4,False,False,False,False,False
691,"4 days, 23:43:43",0.0,0.0,931,931,2,371,3,0,False,False,False,False,False
692,not closed,0.0,0.0,0,0,0,0,3,1,False,False,False,False,False
695,"133 days, 22:29:12",0.0,0.0,8,2,1,1,4,0,False,False,False,False,False
697,3:09:08,0.0,0.0,1,0,1,1,0,0,False,False,False,False,False
698,0:24:57,0.0,0.0,6,3,2,1,0,2,False,False,False,False,False
699,1:09:01,0.0,0.0,10,2,2,1,0,0,False,False,False,False,False
701,8:41:15,0.0,0.0,1,1,1,1,1,0,False,False,False,True,False
702,"52 days, 0:04:35",0.0,1.0,7,4,3,3,4,0,False,False,False,True,False
703,18:38:03,0.000700770847932726,1.0,10,5,4,3,1,0,False,False,False,True,False
704,not closed,0.0,0.0,119,76,2,31,6,0,False,False,True,False,False
705,"129 days, 22:52:22",0.0,0.0,792,753,2,133,0,0,False,False,False,False,False
706,"1 day, 2:34:19",0.0,0.0,0,0,0,0,2,4,False,False,False,True,False
709,"49 days, 3:53:58",0.0,0.0,1076,1074,2,462,6,0,False,False,False,False,False
716,15:38:49,0.0,0.0,24,23,2,2,4,0,False,False,False,True,False
718,"34 days, 15:35:36",0.0,0.0,11,0,1,1,2,0,False,False,False,True,False
719,"3 days, 7:24:30",0.0,0.0,12,0,3,2,3,0,False,False,False,True,False
726,"32 days, 3:10:16",0.0,0.0,50,0,4,2,1,0,False,False,False,True,False
727,0:31:53,0.0,0.0,55,1,3,3,1,0,False,False,False,True,False
728,0:04:42,0.0,0.0,1,0,2,1,0,0,False,False,False,False,False
729,"2 days, 2:38:22",0.0,0.0,215,0,2,8,2,3,False,False,False,True,False
731,0:51:17,0.0,0.0,11,0,1,1,2,0,False,False,False,True,False
732,"151 days, 12:20:47",0.0,1.0,12,3,1,1,4,0,False,False,False,False,False
734,"14 days, 20:31:29",0.017053206002728513,1.0,315,0,3,12,0,0,True,False,False,False,False
735,10:09:58,0.0,0.0,1,1,1,1,0,0,False,False,True,False,False
737,"8 days, 0:58:08",0.0,0.0,3,2,1,1,7,0,False,False,False,True,False
738,"1 day, 12:07:55",0.0,0.0,0,0,0,0,6,2,False,False,False,True,False
741,"3 days, 21:11:45",0.0,0.0,0,0,0,0,10,8,False,False,False,True,False
743,3:17:22,0.0,0.0,1,0,1,1,1,0,False,False,True,True,False
747,12:33:56,0.0,0.0,10,0,1,1,1,0,False,False,False,True,False
748,"1 day, 2:20:30",0.0,0.0,45,0,2,4,3,0,False,False,False,True,False
752,5:40:29,0.0,0.0,444,1,1,8,5,0,True,False,False,True,False
753,17:19:50,0.0,0.0,11,0,2,1,1,2,False,False,False,True,False
754,0:38:11,0.0006734006734006734,1.0,37,37,1,8,1,0,True,False,False,False,False
755,3:54:11,0.0013440860215053765,1.0,4,4,1,1,1,0,True,False,False,False,False
758,"8 days, 11:52:39",0.0013422818791946308,1.0,10,5,1,2,4,0,False,False,False,False,False
760,1:36:54,0.002012072434607646,1.0,6,9,1,4,1,0,True,False,False,False,False
761,1:24:12,0.002012072434607646,1.0,1,1,1,1,0,0,True,False,False,False,False
762,"98 days, 11:30:54",0.0,0.0,175,0,11,1,8,2,False,False,False,True,False
763,1:24:21,0.003348961821835231,1.0,23,6,1,4,0,0,True,False,False,False,False
765,5:01:34,0.004016064257028112,1.0,134,142,1,7,5,2,True,False,False,False,False
766,2:04:26,0.004016064257028112,1.0,2,2,1,2,0,0,True,False,False,False,False
767,"1 day, 22:26:49",0.005344021376085505,1.0,5,4,1,3,1,7,True,False,False,True,False
768,21:59:32,0.0,0.0,6,5,1,2,2,2,False,False,False,False,False
771,"57 days, 16:17:48",0.0,0.0,32,26,2,6,26,14,False,False,False,False,False
772,"91 days, 23:09:20",0.0,0.0,52,0,3,1,2,0,False,False,False,False,False
774,"1 day, 16:56:38",0.005996002664890073,1.0,1,12,1,2,1,0,True,False,False,True,False
775,23:48:22,0.005996002664890073,1.0,38,40,1,9,0,0,True,False,False,False,False
776,"101 days, 19:12:28",0.007318695941450432,1.0,8,11,1,2,5,0,True,False,False,False,False
782,"101 days, 17:47:07",0.007313829787234043,0.9166666666666666,55,92,1,4,2,0,True,False,False,True,False
783,1:43:58,0.0,0.0,47,1,1,1,1,0,False,False,False,False,False
784,"68 days, 12:54:20",0.0,0.0,64,1,2,2,4,0,False,False,False,True,False
785,"68 days, 12:53:06",0.0,0.0,16,1,4,1,2,0,False,False,False,False,False
787,"7 days, 12:06:45",0.0,0.5,2,2,1,2,8,0,False,False,False,False,False
788,"10 days, 19:40:45",0.0,0.6666666666666666,12,0,1,2,2,0,False,False,False,False,False
789,"4 days, 2:10:37",0.0,0.0,36,6,1,1,5,0,False,False,False,True,False
790,"92 days, 20:45:45",0.007313829787234043,0.9230769230769231,1311,332,1,37,16,21,True,False,False,False,False
791,"38 days, 14:49:36",0.0,0.75,64,67,4,5,6,0,False,False,False,False,False
793,"3 days, 12:51:24",0.0,0.0,4,1,2,1,3,0,False,False,False,False,False
794,"103 days, 11:07:38",0.0,1.0,28,0,1,4,4,0,False,False,False,False,False
795,"36 days, 6:46:52",0.0,0.0,23,5,2,1,3,8,False,False,True,True,False
797,"2 days, 15:18:28",0.000664451827242525,0.8,1,1,1,1,0,0,False,False,True,False,False
799,"96 days, 10:21:24",0.0,0.0,1,1,1,1,1,1,False,False,False,False,False
801,9:50:10,0.0,0.0,0,0,0,0,3,0,False,False,False,True,False
803,"28 days, 23:09:27",0.001985440105890139,0.8333333333333334,47,32,3,7,4,0,False,False,False,False,False
807,"21 days, 6:27:04",0.0006618133686300463,1.0,0,0,0,0,3,0,False,False,False,True,False
809,"67 days, 7:37:36",0.0,0.0,21,1,1,1,2,0,False,False,False,False,False
814,"3 days, 16:30:16",0.0,0.0,1,0,2,1,1,2,False,False,False,True,False
815,"1 day, 23:56:49",0.0,0.0,1,0,1,1,0,0,False,False,False,False,False
816,3:07:54,0.0,0.0,0,0,0,0,1,0,False,False,False,True,False
820,"23 days, 3:28:17",0.0,0.0,23,7,2,4,6,2,False,False,False,True,False
821,19:15:05,0.0,0.0,17,2,4,2,2,9,False,False,False,True,False
827,not closed,0.0,0.0,29,1,3,2,4,2,False,False,False,True,False
832,8:06:42,0.0,0.0,69,0,2,4,2,6,False,False,False,True,False
834,"3 days, 11:30:22",0.0,0.0,16,2,2,1,15,6,False,False,False,True,False
837,"1 day, 8:28:52",0.04068241469816273,1.0,2,2,1,1,3,0,True,True,True,False,False
838,6:02:26,0.0,0.0,0,0,0,0,4,1,False,False,False,True,False
839,3:17:54,0.000655307994757536,1.0,0,0,0,0,1,0,False,False,True,False,False
842,"1 day, 14:56:42",0.0013080444735120995,1.0,0,0,0,0,5,0,False,False,True,True,False
843,8:52:25,0.0,0.0,5,1,3,1,0,0,False,False,False,False,False
844,6:18:23,0.001959503592423253,1.0,0,0,0,0,0,1,False,False,False,False,False
849,0:07:59,0.0,0.0,0,3,1,1,1,0,False,False,False,False,False
854,not closed,0.0,0.0,1009,25,20,19,20,36,False,False,False,False,False
857,"17 days, 1:46:46",0.0032637075718015664,1.0,1044,40,15,10,27,9,True,False,False,True,False
858,"11 days, 10:52:17",0.0,0.0,2,2,2,1,8,0,False,False,False,False,False
860,not closed,0.0032637075718015664,1.0,22,8,2,2,13,0,True,False,False,True,False
861,not closed,0.0032637075718015664,0.75,16,6,3,6,4,0,True,False,False,True,False
865,0:24:02,0.007827788649706457,0.9285714285714286,12,1,1,2,0,0,True,False,False,False,False
868,0:17:02,0.0,0.0,5,1,1,1,1,0,False,False,False,True,False
871,0:04:25,0.009061488673139158,0.9333333333333333,0,13,1,1,1,0,True,False,False,True,False
873,0:23:32,0.009702457956015523,0.9375,5,7,1,6,2,0,True,False,False,False,False
875,"1 day, 10:49:36",0.003223726627981947,0.6,29,1,4,2,7,3,True,False,False,True,False
876,not closed,0.0,0.0,21,9,2,1,0,0,False,False,True,False,False
878,not closed,0.0,0.0,9,9,3,2,2,0,False,False,False,True,False
879,0:43:19,0.010309278350515464,0.9411764705882353,33,68,1,2,0,0,True,False,False,False,False
880,"1 day, 6:34:11",0.010932475884244373,0.9444444444444444,143,0,1,8,4,7,True,False,False,True,False
881,4:06:26,0.010932475884244373,0.9473684210526315,48,0,1,4,0,2,True,False,False,False,False
882,2:09:32,0.010932475884244373,0.95,40,38,1,9,0,0,True,False,False,False,False
883,0:11:42,0.0,0.0,15,0,2,1,3,0,False,False,False,False,False
887,0:13:48,0.012202954399486191,0.9523809523809523,8,0,1,1,0,0,True,False,False,False,False
888,0:15:16,0.012836970474967908,0.9545454545454546,79,27,1,17,0,0,True,False,False,False,False
889,0:28:28,0.014102564102564103,0.9565217391304348,4,4,1,1,0,0,True,False,False,False,False
